EESchema Schematic File Version 4
LIBS:ESP32_Board-cache
EELAYER 26 0
EELAYER END
$Descr A4 11693 8268
encoding utf-8
Sheet 1 1
Title "YStruder_ESP32Board"
Date "2019-02-25"
Rev "v01"
Comp ""
Comment1 "creativecommons.org/licenses/by/4.0/"
Comment2 "License: CC BY 4.0"
Comment3 "Author: Ville Klar"
Comment4 ""
$EndDescr
$Comp
L Device:Rotary_Encoder_Switch SW1
U 1 1 5BDA7A60
P 8600 5150
F 0 "SW1" V 8950 5150 50  0000 C CNN
F 1 "Rotary_Encoder_Switch" H 8800 5400 50  0000 C CNN
F 2 "Rotary_Encoder:RotaryEncoder_Alps_EC12E-Switch_Vertical_H20mm" H 8450 5310 50  0001 C CNN
F 3 "~" H 8600 5410 50  0001 C CNN
	1    8600 5150
	0    1    1    0   
$EndComp
NoConn ~ 2550 1550
NoConn ~ 2550 1850
NoConn ~ 2550 1750
NoConn ~ 2550 2050
Text Label 4000 2150 0    50   ~ 0
ENC_DT
Text Label 4000 2050 0    50   ~ 0
ENC_CLK
Text Label 4000 2650 0    50   ~ 0
ENC_BTN
Text Label 2400 2750 2    50   ~ 0
DISP_CS
Text Label 2400 1950 2    50   ~ 0
DISP_DC
Text Label 2350 2450 2    50   ~ 0
DISP_RST
Wire Wire Line
	2400 2750 2550 2750
Text Label 2400 2150 2    50   ~ 0
DISP_SCK
Text Label 2400 2550 2    50   ~ 0
DISP_MOSI
Text Label 2400 2350 2    50   ~ 0
DISP_MISO
Wire Wire Line
	2400 2150 2550 2150
Wire Wire Line
	2550 2350 2400 2350
NoConn ~ 8900 1400
NoConn ~ 8900 1500
NoConn ~ 8900 1600
NoConn ~ 8900 1700
NoConn ~ 8900 1800
Text Label 2400 3150 2    50   ~ 0
SD__MOSI
Wire Wire Line
	2400 3150 2550 3150
Text Label 2400 2850 2    50   ~ 0
SD__SCK
Wire Wire Line
	2400 2850 2550 2850
Text Label 4000 2450 0    50   ~ 0
SD__MISO
Wire Wire Line
	3850 2450 4000 2450
Text Label 4000 2550 0    50   ~ 0
RX2
Text Label 4000 2350 0    50   ~ 0
TX2
Wire Wire Line
	3850 2350 4000 2350
Wire Wire Line
	4000 2550 3850 2550
$Comp
L power:GND #PWR07
U 1 1 5BD8CBB9
P 4600 2650
F 0 "#PWR07" H 4600 2400 50  0001 C CNN
F 1 "GND" H 4605 2477 50  0000 C CNN
F 2 "" H 4600 2650 50  0001 C CNN
F 3 "" H 4600 2650 50  0001 C CNN
	1    4600 2650
	1    0    0    -1  
$EndComp
Text Label 4000 1850 0    50   ~ 0
SD__CS
Wire Wire Line
	3850 1850 4000 1850
$Comp
L power:GND #PWR06
U 1 1 5BD8D0CC
P 4550 1650
F 0 "#PWR06" H 4550 1400 50  0001 C CNN
F 1 "GND" H 4555 1477 50  0000 C CNN
F 2 "" H 4550 1650 50  0001 C CNN
F 3 "" H 4550 1650 50  0001 C CNN
	1    4550 1650
	1    0    0    -1  
$EndComp
Wire Wire Line
	3850 1650 4550 1650
NoConn ~ 3850 1750
NoConn ~ 3850 1550
Text Label 7450 2000 2    50   ~ 0
SD__CS
Text Label 7450 2200 2    50   ~ 0
SD__MISO
Text Label 7450 2100 2    50   ~ 0
SD__MOSI
Text Label 7450 2300 2    50   ~ 0
SD__SCK
Wire Wire Line
	7450 2000 7600 2000
Wire Wire Line
	7450 2100 7600 2100
Wire Wire Line
	7450 2200 7600 2200
Wire Wire Line
	7450 2300 7600 2300
Text Label 9050 1950 0    50   ~ 0
DISP_MISO
Wire Wire Line
	3850 2750 4400 2750
Wire Wire Line
	4400 2750 4400 2650
Wire Wire Line
	4400 2650 4600 2650
$Comp
L power:+5V #PWR05
U 1 1 5BD8EE47
P 4400 3050
F 0 "#PWR05" H 4400 2900 50  0001 C CNN
F 1 "+5V" H 4415 3223 50  0000 C CNN
F 2 "" H 4400 3050 50  0001 C CNN
F 3 "" H 4400 3050 50  0001 C CNN
	1    4400 3050
	1    0    0    -1  
$EndComp
Wire Wire Line
	3850 2950 4300 2950
Wire Wire Line
	4300 2950 4300 3050
Wire Wire Line
	4300 3050 4400 3050
Text Label 8500 4700 1    50   ~ 0
ENC_DT
Text Label 8700 4700 1    50   ~ 0
ENC_CLK
Text Label 8500 5700 3    50   ~ 0
ENC_BTN
$Comp
L power:GND #PWR012
U 1 1 5BD9B778
P 8200 4100
F 0 "#PWR012" H 8200 3850 50  0001 C CNN
F 1 "GND" H 8205 3927 50  0000 C CNN
F 2 "" H 8200 4100 50  0001 C CNN
F 3 "" H 8200 4100 50  0001 C CNN
	1    8200 4100
	1    0    0    -1  
$EndComp
$Comp
L power:+5V #PWR011
U 1 1 5BDA121D
P 9600 1950
F 0 "#PWR011" H 9600 1800 50  0001 C CNN
F 1 "+5V" H 9615 2123 50  0000 C CNN
F 2 "" H 9600 1950 50  0001 C CNN
F 3 "" H 9600 1950 50  0001 C CNN
	1    9600 1950
	1    0    0    -1  
$EndComp
Wire Wire Line
	8900 2050 9600 2050
Wire Wire Line
	9600 2050 9600 1950
Wire Wire Line
	8900 1950 9050 1950
Text Label 9000 2150 0    50   ~ 0
DISP_SCK
Text Label 9000 2250 0    50   ~ 0
DISP_MOSI
Text Label 9000 2350 0    50   ~ 0
DISP_DC
Text Label 9000 2450 0    50   ~ 0
DISP_RST
Text Label 9000 2550 0    50   ~ 0
DISP_CS
$Comp
L power:+5V #PWR09
U 1 1 5BDA3938
P 8650 3050
F 0 "#PWR09" H 8650 2900 50  0001 C CNN
F 1 "+5V" H 8665 3223 50  0000 C CNN
F 2 "" H 8650 3050 50  0001 C CNN
F 3 "" H 8650 3050 50  0001 C CNN
	1    8650 3050
	1    0    0    -1  
$EndComp
Wire Wire Line
	8900 2750 8900 3100
Wire Wire Line
	8900 3100 8650 3100
Wire Wire Line
	8650 3100 8650 3050
$Comp
L power:GND #PWR010
U 1 1 5BDA4CF2
P 9100 2650
F 0 "#PWR010" H 9100 2400 50  0001 C CNN
F 1 "GND" H 9105 2477 50  0000 C CNN
F 2 "" H 9100 2650 50  0001 C CNN
F 3 "" H 9100 2650 50  0001 C CNN
	1    9100 2650
	1    0    0    -1  
$EndComp
Wire Wire Line
	8900 2650 9100 2650
NoConn ~ 2550 3250
NoConn ~ 2550 3450
NoConn ~ 3850 3450
NoConn ~ 3850 3350
NoConn ~ 3850 3250
NoConn ~ 3850 3150
NoConn ~ 3850 3050
Wire Wire Line
	8900 2150 9000 2150
Wire Wire Line
	8900 2250 9000 2250
Wire Wire Line
	8900 2350 9000 2350
Wire Wire Line
	8900 2450 9000 2450
Wire Wire Line
	8900 2550 9000 2550
Wire Notes Line
	1200 1050 5500 1050
Wire Notes Line
	5500 1050 5500 3950
Wire Notes Line
	5500 3950 1200 3950
Wire Notes Line
	1200 3950 1200 1050
Text Notes 2050 1000 0    90   ~ 0
ESP-32S Breakout - Wemos D1 mini\n
Wire Notes Line
	5100 4750 5100 7000
Wire Notes Line
	5100 7000 1650 7000
Wire Notes Line
	1650 7000 1650 4750
Wire Notes Line
	1650 4750 5100 4750
Text Notes 2950 4700 0    90   ~ 0
Connectors and regulator\n\n
Text Notes 8050 3750 0    90   ~ 0
User Input
Wire Notes Line
	6750 3800 10300 3800
Wire Notes Line
	10300 3800 10300 6150
Wire Notes Line
	10300 6150 6750 6150
Wire Notes Line
	6750 6150 6750 3800
Text Notes 7200 950  0    90   ~ 0
2.4''  TFT SPI Display Breakout\n
Wire Notes Line
	9850 1050 9850 3300
Wire Notes Line
	9850 3300 6750 3300
Wire Notes Line
	6750 3300 6750 1050
Wire Notes Line
	6750 1050 9850 1050
Wire Wire Line
	2400 2550 2550 2550
Wire Wire Line
	3850 2050 4000 2050
Wire Wire Line
	3850 2150 4000 2150
NoConn ~ 2550 2650
NoConn ~ 2550 3050
NoConn ~ 3850 2850
NoConn ~ 2550 2250
NoConn ~ 3850 1950
NoConn ~ 3850 2250
Wire Wire Line
	2400 1950 2550 1950
Wire Wire Line
	4000 2650 3850 2650
$Comp
L power:GND #PWR01
U 1 1 5BD8A219
P 1850 1650
F 0 "#PWR01" H 1850 1400 50  0001 C CNN
F 1 "GND" H 1855 1477 50  0000 C CNN
F 2 "" H 1850 1650 50  0001 C CNN
F 3 "" H 1850 1650 50  0001 C CNN
	1    1850 1650
	1    0    0    -1  
$EndComp
Wire Wire Line
	2550 1650 1850 1650
Wire Wire Line
	2350 2450 2550 2450
NoConn ~ 2550 3350
$Comp
L Connector:Barrel_Jack J2
U 1 1 5C58FAB6
P 2000 5250
F 0 "J2" H 2055 5575 50  0000 C CNN
F 1 "Barrel_Jack" H 2055 5484 50  0000 C CNN
F 2 "Connectors:BARREL_JACK" H 2050 5210 50  0001 C CNN
F 3 "~" H 2050 5210 50  0001 C CNN
	1    2000 5250
	1    0    0    -1  
$EndComp
Wire Wire Line
	8500 5450 8500 5700
Wire Wire Line
	8700 5650 8700 5450
$Comp
L Device:R R1
U 1 1 5C592BEB
P 7850 4600
F 0 "R1" H 7780 4554 50  0000 R CNN
F 1 "10K" H 7780 4645 50  0000 R CNN
F 2 "Resistors_SMD:R_1206_HandSoldering" V 7780 4600 50  0001 C CNN
F 3 "~" H 7850 4600 50  0001 C CNN
	1    7850 4600
	-1   0    0    1   
$EndComp
$Comp
L Device:R R2
U 1 1 5C592C25
P 9300 4650
F 0 "R2" H 9230 4604 50  0000 R CNN
F 1 "10K" H 9230 4695 50  0000 R CNN
F 2 "Resistors_SMD:R_1206_HandSoldering" V 9230 4650 50  0001 C CNN
F 3 "~" H 9300 4650 50  0001 C CNN
	1    9300 4650
	-1   0    0    1   
$EndComp
Wire Wire Line
	8500 4850 8500 4800
Connection ~ 8500 4800
Wire Wire Line
	8500 4800 8500 4700
Wire Wire Line
	8700 4850 8700 4800
Connection ~ 8700 4800
Wire Wire Line
	8700 4800 8700 4700
Wire Wire Line
	8600 4100 8200 4100
Wire Wire Line
	8600 4100 8600 4850
$Comp
L power:GND #PWR019
U 1 1 5C59BA8F
P 8700 5650
F 0 "#PWR019" H 8700 5400 50  0001 C CNN
F 1 "GND" H 8705 5477 50  0000 C CNN
F 2 "" H 8700 5650 50  0001 C CNN
F 3 "" H 8700 5650 50  0001 C CNN
	1    8700 5650
	1    0    0    -1  
$EndComp
$Comp
L power:+3V3 #PWR018
U 1 1 5C59BD5C
P 7850 4400
F 0 "#PWR018" H 7850 4250 50  0001 C CNN
F 1 "+3V3" H 7865 4573 50  0000 C CNN
F 2 "" H 7850 4400 50  0001 C CNN
F 3 "" H 7850 4400 50  0001 C CNN
	1    7850 4400
	1    0    0    -1  
$EndComp
$Comp
L power:+3V3 #PWR020
U 1 1 5C59BD7A
P 9300 4450
F 0 "#PWR020" H 9300 4300 50  0001 C CNN
F 1 "+3V3" H 9315 4623 50  0000 C CNN
F 2 "" H 9300 4450 50  0001 C CNN
F 3 "" H 9300 4450 50  0001 C CNN
	1    9300 4450
	1    0    0    -1  
$EndComp
Wire Wire Line
	7850 4800 7850 4750
Wire Wire Line
	7850 4800 8500 4800
Wire Wire Line
	8700 4800 9300 4800
Wire Wire Line
	7850 4450 7850 4400
Wire Wire Line
	9300 4500 9300 4450
$Comp
L Connector_Generic:Conn_01x04 J5
U 1 1 5C5A0EDD
P 4350 6100
F 0 "J5" V 4350 6300 50  0000 L CNN
F 1 "Conn_01x04" V 4450 6250 50  0000 L CNN
F 2 "Socket_Strips:Socket_Strip_Straight_1x04_Pitch2.54mm" H 4350 6100 50  0001 C CNN
F 3 "~" H 4350 6100 50  0001 C CNN
	1    4350 6100
	0    1    1    0   
$EndComp
$Comp
L Regulator_Linear:AMS1117-5.0 U3
U 1 1 5C5A1062
P 3350 5200
F 0 "U3" H 3350 5442 50  0000 C CNN
F 1 "AMS1117-5.0" H 3350 5351 50  0000 C CNN
F 2 "TO_SOT_Packages_SMD:SOT-223-3_TabPin2" H 3350 5400 50  0001 C CNN
F 3 "http://www.advanced-monolithic.com/pdf/ds1117.pdf" H 3450 4950 50  0001 C CNN
	1    3350 5200
	1    0    0    -1  
$EndComp
$Comp
L power:+12V #PWR04
U 1 1 5C5A1478
P 2450 5100
F 0 "#PWR04" H 2450 4950 50  0001 C CNN
F 1 "+12V" H 2465 5273 50  0000 C CNN
F 2 "" H 2450 5100 50  0001 C CNN
F 3 "" H 2450 5100 50  0001 C CNN
	1    2450 5100
	1    0    0    -1  
$EndComp
Wire Wire Line
	2300 5150 2450 5150
Wire Wire Line
	2450 5150 2450 5100
$Comp
L power:GND #PWR08
U 1 1 5C5A239F
P 2450 5450
F 0 "#PWR08" H 2450 5200 50  0001 C CNN
F 1 "GND" H 2455 5277 50  0000 C CNN
F 2 "" H 2450 5450 50  0001 C CNN
F 3 "" H 2450 5450 50  0001 C CNN
	1    2450 5450
	1    0    0    -1  
$EndComp
Wire Wire Line
	2300 5350 2450 5350
Wire Wire Line
	2450 5350 2450 5450
$Comp
L power:+5V #PWR015
U 1 1 5C5A3429
P 3800 5100
F 0 "#PWR015" H 3800 4950 50  0001 C CNN
F 1 "+5V" H 3815 5273 50  0000 C CNN
F 2 "" H 3800 5100 50  0001 C CNN
F 3 "" H 3800 5100 50  0001 C CNN
	1    3800 5100
	1    0    0    -1  
$EndComp
Wire Wire Line
	3650 5200 3700 5200
Wire Wire Line
	3800 5200 3800 5100
$Comp
L power:+12V #PWR013
U 1 1 5C5A4586
P 2850 5100
F 0 "#PWR013" H 2850 4950 50  0001 C CNN
F 1 "+12V" H 2865 5273 50  0000 C CNN
F 2 "" H 2850 5100 50  0001 C CNN
F 3 "" H 2850 5100 50  0001 C CNN
	1    2850 5100
	1    0    0    -1  
$EndComp
Wire Wire Line
	3050 5200 2850 5200
Wire Wire Line
	2850 5200 2850 5100
$Comp
L Device:C C1
U 1 1 5C5A584A
P 3700 5350
F 0 "C1" H 3815 5396 50  0000 L CNN
F 1 "22 uF" H 3815 5305 50  0000 L CNN
F 2 "Capacitors_SMD:C_1206_HandSoldering" H 3738 5200 50  0001 C CNN
F 3 "~" H 3700 5350 50  0001 C CNN
	1    3700 5350
	1    0    0    -1  
$EndComp
Connection ~ 3700 5200
Wire Wire Line
	3700 5200 3800 5200
Wire Wire Line
	3350 5500 3550 5500
$Comp
L power:GND #PWR014
U 1 1 5C5A6EBD
P 3550 5500
F 0 "#PWR014" H 3550 5250 50  0001 C CNN
F 1 "GND" H 3555 5327 50  0000 C CNN
F 2 "" H 3550 5500 50  0001 C CNN
F 3 "" H 3550 5500 50  0001 C CNN
	1    3550 5500
	1    0    0    -1  
$EndComp
Connection ~ 3550 5500
Wire Wire Line
	3550 5500 3700 5500
Text Label 2800 6350 1    50   ~ 0
RX2
Text Label 2700 6350 1    50   ~ 0
TX2
$Comp
L power:+12V #PWR02
U 1 1 5C5AFCA8
P 2200 6400
F 0 "#PWR02" H 2200 6250 50  0001 C CNN
F 1 "+12V" H 2215 6573 50  0000 C CNN
F 2 "" H 2200 6400 50  0001 C CNN
F 3 "" H 2200 6400 50  0001 C CNN
	1    2200 6400
	1    0    0    -1  
$EndComp
$Comp
L power:GND #PWR03
U 1 1 5C5B1314
P 3200 6300
F 0 "#PWR03" H 3200 6050 50  0001 C CNN
F 1 "GND" H 3205 6127 50  0000 C CNN
F 2 "" H 3200 6300 50  0001 C CNN
F 3 "" H 3200 6300 50  0001 C CNN
	1    3200 6300
	1    0    0    -1  
$EndComp
$Comp
L power:+12V #PWR016
U 1 1 5C5B4367
P 3950 5800
F 0 "#PWR016" H 3950 5650 50  0001 C CNN
F 1 "+12V" H 3965 5973 50  0000 C CNN
F 2 "" H 3950 5800 50  0001 C CNN
F 3 "" H 3950 5800 50  0001 C CNN
	1    3950 5800
	1    0    0    -1  
$EndComp
$Comp
L power:GND #PWR017
U 1 1 5C5B438A
P 4800 5850
F 0 "#PWR017" H 4800 5600 50  0001 C CNN
F 1 "GND" H 4805 5677 50  0000 C CNN
F 2 "" H 4800 5850 50  0001 C CNN
F 3 "" H 4800 5850 50  0001 C CNN
	1    4800 5850
	1    0    0    -1  
$EndComp
Text Label 2600 6350 1    50   ~ 0
EXT_DIR
Text Label 2500 6350 1    50   ~ 0
EXT_STEP
Wire Wire Line
	4150 5900 4150 5800
Wire Wire Line
	4150 5800 3950 5800
Wire Wire Line
	4450 5900 4450 5800
Wire Wire Line
	4450 5800 4800 5800
Wire Wire Line
	4800 5800 4800 5850
Text Label 4350 5700 1    50   ~ 0
EXT_DIR
Text Label 4250 5700 1    50   ~ 0
EXT_STEP
Wire Wire Line
	4250 5900 4250 5700
Wire Wire Line
	4350 5900 4350 5700
$Comp
L Connector_Generic:Conn_01x06 J1
U 1 1 5C5CB4BA
P 2700 6650
F 0 "J1" V 2573 6930 50  0000 L CNN
F 1 "Conn_01x06" V 2664 6930 50  0000 L CNN
F 2 "Socket_Strips:Socket_Strip_Straight_1x06_Pitch2.54mm" H 2700 6650 50  0001 C CNN
F 3 "~" H 2700 6650 50  0001 C CNN
	1    2700 6650
	0    1    1    0   
$EndComp
Wire Wire Line
	2900 6450 2900 6300
Wire Wire Line
	2900 6300 3200 6300
Wire Wire Line
	2500 6450 2500 6350
Wire Wire Line
	2600 6450 2600 6350
Wire Wire Line
	2700 6450 2700 6350
Wire Wire Line
	2800 6450 2800 6350
Wire Wire Line
	2400 6450 2200 6450
Wire Wire Line
	2200 6450 2200 6400
$Comp
L power:+3V3 #PWR0101
U 1 1 5C58576E
P 1850 2950
F 0 "#PWR0101" H 1850 2800 50  0001 C CNN
F 1 "+3V3" H 1865 3123 50  0000 C CNN
F 2 "" H 1850 2950 50  0001 C CNN
F 3 "" H 1850 2950 50  0001 C CNN
	1    1850 2950
	1    0    0    -1  
$EndComp
Wire Wire Line
	2550 2950 1850 2950
$Comp
L WEMOS_32:WEMOS_ESP32 U1
U 1 1 5C74234C
P 3200 1950
F 0 "U1" H 3200 2575 50  0000 C CNN
F 1 "WEMOS_ESP32" H 3200 2484 50  0000 C CNN
F 2 "WEMOS_ESP32_D1mini:WEMOS_ESP32_D1mini" H 3300 1950 50  0001 C CNN
F 3 "" H 3300 1950 50  0001 C CNN
	1    3200 1950
	1    0    0    -1  
$EndComp
$Comp
L ILI9341_BreakOut:ILI9341_BreakOut U2
U 1 1 5C7426BC
P 8250 2100
F 0 "U2" H 8250 3067 50  0000 C CNN
F 1 "ILI9341_BreakOut" H 8250 2976 50  0000 C CNN
F 2 "ILI9341_BreakOut:ILI9341_BreakOut" H 7550 1750 50  0001 C CNN
F 3 "" H 7550 1750 50  0001 C CNN
	1    8250 2100
	1    0    0    -1  
$EndComp
$EndSCHEMATC
