EESchema Schematic File Version 4
EELAYER 26 0
EELAYER END
$Descr A4 11693 8268
encoding utf-8
Sheet 1 1
Title "Ystruder_TeensyBoard"
Date "2019-02-25"
Rev "v03"
Comp ""
Comment1 ""
Comment2 "creativecommons.org/licenses/by/4.0/"
Comment3 "License: CC BY 4.0"
Comment4 "Author: Ville Klar"
$EndDescr
Wire Notes Line
	1200 800  5550 800 
Wire Notes Line
	5550 800  5550 4250
Wire Notes Line
	5550 4250 1200 4250
Wire Notes Line
	1200 4250 1200 800 
Wire Wire Line
	2200 1450 2300 1450
Wire Wire Line
	2200 1350 2300 1350
Text Label 8500 1300 0    50   ~ 0
DOUT
Text Label 8500 1400 0    50   ~ 0
SCLK
Wire Wire Line
	8350 4650 8650 4650
Wire Wire Line
	8350 4750 8650 4750
Wire Wire Line
	8350 4850 8650 4850
Wire Wire Line
	8350 4950 8650 4950
Wire Wire Line
	2300 1250 1850 1250
Wire Wire Line
	6750 1500 6350 1500
Wire Wire Line
	6350 1500 6350 1600
Wire Wire Line
	6750 1600 6350 1600
Connection ~ 6350 1600
Wire Wire Line
	6350 1600 6350 1700
Wire Wire Line
	6750 1700 6350 1700
Connection ~ 6350 1700
Wire Wire Line
	6350 1700 6350 1800
Wire Wire Line
	6350 1800 6750 1800
Wire Wire Line
	8350 4450 8350 4100
Wire Wire Line
	8350 4100 8500 4100
Wire Wire Line
	8350 4550 8600 4550
Wire Wire Line
	4300 3650 4450 3650
Wire Wire Line
	4300 3750 4450 3750
Wire Wire Line
	2150 3150 2300 3150
Wire Wire Line
	7200 4450 7350 4450
Wire Wire Line
	7200 4550 7350 4550
Wire Wire Line
	7200 4750 7350 4750
Wire Wire Line
	7200 4850 7350 4850
Wire Wire Line
	7200 4950 7350 4950
Wire Wire Line
	7200 5050 7350 5050
Wire Wire Line
	7200 5150 7350 5150
Wire Wire Line
	8350 5150 8350 5300
Wire Wire Line
	8350 5300 8550 5300
Wire Wire Line
	8350 5050 8750 5050
NoConn ~ 7750 5350
Wire Wire Line
	9500 1850 9650 1850
Wire Wire Line
	9500 2150 9650 2150
Wire Wire Line
	9500 1950 9650 1950
Wire Wire Line
	9500 2050 9650 2050
Wire Notes Line
	6000 3650 6000 6050
Wire Wire Line
	4300 3550 4800 3550
Wire Wire Line
	4800 3550 4800 3500
Wire Wire Line
	4300 3350 4650 3350
NoConn ~ 4300 3450
NoConn ~ 4300 3250
NoConn ~ 4300 3150
NoConn ~ 4300 3050
NoConn ~ 4300 2950
NoConn ~ 4300 2850
Wire Wire Line
	2250 3850 2300 3850
Text Notes 7350 750  0    79   ~ 0
ADS1232 24-bit ADC
Wire Wire Line
	2150 1850 2300 1850
Wire Wire Line
	2150 1950 2300 1950
Wire Wire Line
	2150 2050 2300 2050
Wire Wire Line
	2150 2150 2300 2150
NoConn ~ 2300 2650
NoConn ~ 2300 2750
NoConn ~ 2300 2950
Wire Wire Line
	2200 2450 2300 2450
Wire Wire Line
	2200 2550 2300 2550
NoConn ~ 2300 2850
Wire Wire Line
	2150 3450 2300 3450
NoConn ~ 4300 1250
NoConn ~ 4300 1350
NoConn ~ 4300 1450
NoConn ~ 4300 1550
NoConn ~ 4300 1650
NoConn ~ 4300 1750
NoConn ~ 4300 1850
NoConn ~ 4300 1950
NoConn ~ 4300 2050
NoConn ~ 4300 2150
NoConn ~ 4300 2350
NoConn ~ 4300 2450
NoConn ~ 4300 2550
NoConn ~ 4300 2650
Wire Wire Line
	7950 5350 7950 5450
NoConn ~ 7850 5350
Text Notes 1650 4600 0    79   ~ 0
Connection to interface board , regulator and switches\n
Wire Notes Line
	1600 4700 4950 4700
NoConn ~ 2300 1550
Text Notes 2950 750  0    79   ~ 0
Teensy 3.2
$Comp
L power:GND #PWR0118
U 1 1 5BD235C4
P 5800 1900
F 0 "#PWR0118" H 5800 1650 50  0001 C CNN
F 1 "GND" H 5805 1727 50  0000 C CNN
F 2 "" H 5800 1900 50  0001 C CNN
F 3 "" H 5800 1900 50  0001 C CNN
	1    5800 1900
	1    0    0    -1  
$EndComp
$Comp
L power:GND #PWR0119
U 1 1 5BD1A74C
P 2050 6750
F 0 "#PWR0119" H 2050 6500 50  0001 C CNN
F 1 "GND" H 2055 6577 50  0000 C CNN
F 2 "" H 2050 6750 50  0001 C CNN
F 3 "" H 2050 6750 50  0001 C CNN
	1    2050 6750
	1    0    0    -1  
$EndComp
Text Label 2200 1350 2    50   ~ 0
RX
Text Label 2200 1450 2    50   ~ 0
TX
Text Label 2600 6700 3    50   ~ 0
RX
Text Label 2700 6700 3    50   ~ 0
TX
Text Label 2200 2550 2    50   ~ 0
TMC_MISO
Text Label 2200 2450 2    50   ~ 0
TMC_MOSI
Text Label 7200 4950 2    50   ~ 0
TMC_SCK
Text Label 2150 3450 2    50   ~ 0
TMC_CS
Text Label 2150 3650 2    50   ~ 0
TMC_EN
$Comp
L power:GND #PWR0121
U 1 1 5BD235C9
P 1850 1250
F 0 "#PWR0121" H 1850 1000 50  0001 C CNN
F 1 "GND" H 1855 1077 50  0000 C CNN
F 2 "" H 1850 1250 50  0001 C CNN
F 3 "" H 1850 1250 50  0001 C CNN
	1    1850 1250
	1    0    0    -1  
$EndComp
$Comp
L power:+3V3 #PWR0122
U 1 1 5BD235CA
P 8600 4550
F 0 "#PWR0122" H 8600 4400 50  0001 C CNN
F 1 "+3V3" H 8615 4723 50  0000 C CNN
F 2 "" H 8600 4550 50  0001 C CNN
F 3 "" H 8600 4550 50  0001 C CNN
	1    8600 4550
	1    0    0    -1  
$EndComp
$Comp
L power:GND #PWR0123
U 1 1 5BD235CB
P 8500 4100
F 0 "#PWR0123" H 8500 3850 50  0001 C CNN
F 1 "GND" H 8505 3927 50  0000 C CNN
F 2 "" H 8500 4100 50  0001 C CNN
F 3 "" H 8500 4100 50  0001 C CNN
	1    8500 4100
	1    0    0    -1  
$EndComp
Text Label 2150 3250 2    50   ~ 0
TMC_DIR
Text Label 2150 3350 2    50   ~ 0
TMC_STEP
$Comp
L power:+3V3 #PWR0126
U 1 1 5BD30261
P 6750 1300
F 0 "#PWR0126" H 6750 1150 50  0001 C CNN
F 1 "+3V3" H 6750 1450 50  0000 C CNN
F 2 "" H 6750 1300 50  0001 C CNN
F 3 "" H 6750 1300 50  0001 C CNN
	1    6750 1300
	1    0    0    -1  
$EndComp
Text Label 6600 2300 2    50   ~ 0
A+
Text Label 6600 2400 2    50   ~ 0
A-
Text Label 7200 4450 2    50   ~ 0
TMC_DIR
Text Label 7200 4550 2    50   ~ 0
TMC_STEP
Text Label 7200 5150 2    50   ~ 0
TMC_EN
Text Label 7200 4850 2    50   ~ 0
TMC_CS
Text Label 7200 4750 2    50   ~ 0
TMC_MISO
Text Label 7200 5050 2    50   ~ 0
TMC_MOSI
Text Label 8500 1600 0    50   ~ 0
SPEED
$Comp
L power:+12V #PWR0128
U 1 1 5BD235D0
P 8550 5300
F 0 "#PWR0128" H 8550 5150 50  0001 C CNN
F 1 "+12V" H 8565 5473 50  0000 C CNN
F 2 "" H 8550 5300 50  0001 C CNN
F 3 "" H 8550 5300 50  0001 C CNN
	1    8550 5300
	1    0    0    -1  
$EndComp
$Comp
L power:GND #PWR0129
U 1 1 5BD235D1
P 8750 5050
F 0 "#PWR0129" H 8750 4800 50  0001 C CNN
F 1 "GND" H 8755 4877 50  0000 C CNN
F 2 "" H 8750 5050 50  0001 C CNN
F 3 "" H 8750 5050 50  0001 C CNN
	1    8750 5050
	1    0    0    -1  
$EndComp
$Comp
L power:+5V #PWR0130
U 1 1 5BD235D2
P 9300 2300
F 0 "#PWR0130" H 9300 2150 50  0001 C CNN
F 1 "+5V" H 9315 2473 50  0000 C CNN
F 2 "" H 9300 2300 50  0001 C CNN
F 3 "" H 9300 2300 50  0001 C CNN
	1    9300 2300
	1    0    0    -1  
$EndComp
$Comp
L power:GND #PWR0131
U 1 1 5BD235D3
P 9350 1550
F 0 "#PWR0131" H 9350 1300 50  0001 C CNN
F 1 "GND" H 9355 1377 50  0000 C CNN
F 2 "" H 9350 1550 50  0001 C CNN
F 3 "" H 9350 1550 50  0001 C CNN
	1    9350 1550
	1    0    0    -1  
$EndComp
Text Label 9500 1950 2    50   ~ 0
A+
Text Label 9500 2050 2    50   ~ 0
A-
$Comp
L power:+3V3 #PWR0132
U 1 1 5BD235D4
P 4800 3500
F 0 "#PWR0132" H 4800 3350 50  0001 C CNN
F 1 "+3V3" H 4815 3673 50  0000 C CNN
F 2 "" H 4800 3500 50  0001 C CNN
F 3 "" H 4800 3500 50  0001 C CNN
	1    4800 3500
	1    0    0    -1  
$EndComp
$Comp
L power:+5V #PWR0133
U 1 1 5BD235D5
P 4650 3350
F 0 "#PWR0133" H 4650 3200 50  0001 C CNN
F 1 "+5V" H 4665 3523 50  0000 C CNN
F 2 "" H 4650 3350 50  0001 C CNN
F 3 "" H 4650 3350 50  0001 C CNN
	1    4650 3350
	1    0    0    -1  
$EndComp
$Comp
L power:GND #PWR0134
U 1 1 5BD74486
P 4650 2750
F 0 "#PWR0134" H 4650 2500 50  0001 C CNN
F 1 "GND" H 4655 2577 50  0000 C CNN
F 2 "" H 4650 2750 50  0001 C CNN
F 3 "" H 4650 2750 50  0001 C CNN
	1    4650 2750
	1    0    0    -1  
$EndComp
Text Notes 7350 750  0    79   ~ 0
ADS1232 24-bit ADC
Text Label 2150 2050 2    50   ~ 0
SPEED
Text Label 2150 2150 2    50   ~ 0
~PDWN
Text Label 2150 2350 2    50   ~ 0
DOUT
Text Label 2150 2250 2    50   ~ 0
SCLK
Text Label 4450 3650 0    50   ~ 0
BTN_UP
Text Label 4450 3750 0    50   ~ 0
BTN_DOWN
Text Label 2250 3850 2    50   ~ 0
BTN_STOP
Text Label 2150 3150 2    50   ~ 0
TMC_SCK
Text Label 7950 5450 3    50   ~ 0
TMC_DIAG1
Text Label 4450 3850 0    50   ~ 0
TMC_DIAG1
$Comp
L Connector_Generic:Conn_01x04 J4
U 1 1 5BE167CB
P 8850 4750
F 0 "J4" H 8929 4742 50  0000 L CNN
F 1 "Stepper_Connector" H 8929 4651 50  0000 L CNN
F 2 "Socket_Strips:Socket_Strip_Straight_1x04_Pitch2.54mm" H 8850 4750 50  0001 C CNN
F 3 "~" H 8850 4750 50  0001 C CNN
	1    8850 4750
	1    0    0    -1  
$EndComp
Wire Wire Line
	4300 2750 4650 2750
$Comp
L power:+12V #PWR0101
U 1 1 5BD6F4AE
P 1750 6650
F 0 "#PWR0101" H 1750 6500 50  0001 C CNN
F 1 "+12V" H 1765 6823 50  0000 C CNN
F 2 "" H 1750 6650 50  0001 C CNN
F 3 "" H 1750 6650 50  0001 C CNN
	1    1750 6650
	1    0    0    -1  
$EndComp
Wire Wire Line
	2150 3350 2300 3350
Text Label 2150 1650 2    50   ~ 0
EXT_DIR
Text Label 2150 1750 2    50   ~ 0
EXT_STEP
Wire Wire Line
	2150 1650 2300 1650
Wire Wire Line
	2150 1750 2300 1750
Text Label 3150 6700 3    50   ~ 0
EXT_STEP
Text Label 3250 6700 3    50   ~ 0
EXT_DIR
Wire Notes Line
	10300 3650 10300 6050
Wire Notes Line
	6000 3650 10300 3650
Wire Notes Line
	6000 6050 10300 6050
Wire Wire Line
	2150 3250 2300 3250
Wire Wire Line
	2300 3650 2150 3650
NoConn ~ 2300 3550
Wire Wire Line
	9350 1550 9500 1550
Wire Wire Line
	9500 1550 9500 1850
Wire Wire Line
	9500 2300 9300 2300
Wire Wire Line
	9500 2150 9500 2300
$Comp
L Regulator_Linear:AMS1117-5.0 U2
U 1 1 5C2CF574
P 2450 5300
F 0 "U2" H 2450 5542 50  0000 C CNN
F 1 "AMS1117-5.0" H 2450 5451 50  0000 C CNN
F 2 "TO_SOT_Packages_SMD:SOT-223" H 2450 5500 50  0001 C CNN
F 3 "http://www.advanced-monolithic.com/pdf/ds1117.pdf" H 2550 5050 50  0001 C CNN
	1    2450 5300
	1    0    0    -1  
$EndComp
$Comp
L TMC2130_BreakOut:TMC2130_BreakOut U4
U 1 1 5C2CFC3F
P 7850 4800
F 0 "U4" H 7850 5375 50  0000 C CNN
F 1 "TMC2130_BreakOut" H 7850 5284 50  0000 C CNN
F 2 "TMC2130_BreakOut:TM2130_BreakOut" H 7600 4950 50  0001 C CNN
F 3 "" H 7600 4950 50  0001 C CNN
	1    7850 4800
	1    0    0    -1  
$EndComp
$Comp
L Device:C C1
U 1 1 5C2F2877
P 2950 5500
F 0 "C1" H 3065 5546 50  0000 L CNN
F 1 "22uF" H 3065 5455 50  0000 L CNN
F 2 "Capacitors_SMD:C_1206_HandSoldering" H 2988 5350 50  0001 C CNN
F 3 "~" H 2950 5500 50  0001 C CNN
	1    2950 5500
	1    0    0    -1  
$EndComp
$Comp
L power:+5V #PWR0102
U 1 1 5C2F826B
P 3150 5300
F 0 "#PWR0102" H 3150 5150 50  0001 C CNN
F 1 "+5V" H 3165 5473 50  0000 C CNN
F 2 "" H 3150 5300 50  0001 C CNN
F 3 "" H 3150 5300 50  0001 C CNN
	1    3150 5300
	1    0    0    -1  
$EndComp
Wire Wire Line
	2750 5300 2950 5300
Wire Wire Line
	2950 5350 2950 5300
Connection ~ 2950 5300
Wire Wire Line
	2950 5300 3150 5300
$Comp
L power:GND #PWR0103
U 1 1 5C30090E
P 2700 5850
F 0 "#PWR0103" H 2700 5600 50  0001 C CNN
F 1 "GND" H 2705 5677 50  0000 C CNN
F 2 "" H 2700 5850 50  0001 C CNN
F 3 "" H 2700 5850 50  0001 C CNN
	1    2700 5850
	1    0    0    -1  
$EndComp
$Comp
L power:+12V #PWR0104
U 1 1 5C300984
P 1950 5300
F 0 "#PWR0104" H 1950 5150 50  0001 C CNN
F 1 "+12V" H 1965 5473 50  0000 C CNN
F 2 "" H 1950 5300 50  0001 C CNN
F 3 "" H 1950 5300 50  0001 C CNN
	1    1950 5300
	1    0    0    -1  
$EndComp
Wire Wire Line
	1950 5300 2150 5300
Wire Wire Line
	2950 5650 2700 5650
Wire Wire Line
	2700 5650 2700 5850
Wire Wire Line
	2450 5600 2450 5650
Wire Wire Line
	2450 5650 2700 5650
Connection ~ 2700 5650
$Comp
L Connector_Generic:Conn_01x04 J5
U 1 1 5BD235D8
P 9850 1950
F 0 "J5" H 9929 1942 50  0000 L CNN
F 1 "LoadCell_Connector" H 9929 1851 50  0000 L CNN
F 2 "Socket_Strips:Socket_Strip_Straight_1x04_Pitch2.54mm" H 9850 1950 50  0001 C CNN
F 3 "~" H 9850 1950 50  0001 C CNN
	1    9850 1950
	1    0    0    -1  
$EndComp
$Comp
L ads1232:ads1232 U3
U 1 1 5C32FEDD
P 7550 1900
F 0 "U3" H 7550 2767 50  0000 C CNN
F 1 "ads1232" H 7550 2676 50  0000 C CNN
F 2 "Housings_SSOP:TSSOP-24_4.4x7.8mm_Pitch0.65mm" H 7550 1900 50  0001 L CNN
F 3 "" H 7550 1900 50  0001 L CNN
	1    7550 1900
	1    0    0    -1  
$EndComp
Wire Wire Line
	6600 2400 6750 2400
Wire Wire Line
	6600 2300 6750 2300
Text Label 8500 1500 0    50   ~ 0
~PDWN
$Comp
L power:+5V #PWR0127
U 1 1 5BD39948
P 8800 2100
F 0 "#PWR0127" H 8800 1950 50  0001 C CNN
F 1 "+5V" H 8815 2273 50  0000 C CNN
F 2 "" H 8800 2100 50  0001 C CNN
F 3 "" H 8800 2100 50  0001 C CNN
	1    8800 2100
	1    0    0    -1  
$EndComp
Wire Wire Line
	8350 2100 8500 2100
$Comp
L power:GND #PWR0125
U 1 1 5BD235CD
P 8600 2500
F 0 "#PWR0125" H 8600 2250 50  0001 C CNN
F 1 "GND" H 8605 2327 50  0000 C CNN
F 2 "" H 8600 2500 50  0001 C CNN
F 3 "" H 8600 2500 50  0001 C CNN
	1    8600 2500
	1    0    0    -1  
$EndComp
Wire Wire Line
	8350 2200 8600 2200
Wire Wire Line
	8600 2200 8600 2300
Wire Wire Line
	8350 2300 8600 2300
Connection ~ 8600 2300
Wire Wire Line
	8600 2300 8600 2400
Wire Wire Line
	8350 2400 8600 2400
Connection ~ 8600 2400
Wire Wire Line
	8600 2400 8600 2450
Wire Wire Line
	8350 1300 8500 1300
Wire Wire Line
	8350 1400 8500 1400
Wire Wire Line
	8350 1500 8500 1500
Wire Wire Line
	8350 1600 8500 1600
$Comp
L Device:C C2
U 1 1 5C35126C
P 6050 2150
F 0 "C2" H 6165 2196 50  0000 L CNN
F 1 "0.1uF" H 6165 2105 50  0000 L CNN
F 2 "Capacitors_SMD:C_1206_HandSoldering" H 6088 2000 50  0001 C CNN
F 3 "~" H 6050 2150 50  0001 C CNN
	1    6050 2150
	1    0    0    -1  
$EndComp
Wire Wire Line
	6750 2200 6400 2200
Wire Wire Line
	6400 2200 6400 2300
Wire Wire Line
	6550 2000 6550 2100
Wire Wire Line
	6550 2100 6750 2100
$Comp
L power:GND #PWR0105
U 1 1 5C35F827
P 9000 1750
F 0 "#PWR0105" H 9000 1500 50  0001 C CNN
F 1 "GND" H 9005 1577 50  0000 C CNN
F 2 "" H 9000 1750 50  0001 C CNN
F 3 "" H 9000 1750 50  0001 C CNN
	1    9000 1750
	1    0    0    -1  
$EndComp
$Comp
L Device:C C4
U 1 1 5C35FD88
P 8800 2300
F 0 "C4" H 8915 2346 50  0000 L CNN
F 1 "0.1uF" H 8915 2255 50  0000 L CNN
F 2 "Capacitors_SMD:C_1206_HandSoldering" H 8838 2150 50  0001 C CNN
F 3 "~" H 8800 2300 50  0001 C CNN
	1    8800 2300
	1    0    0    -1  
$EndComp
Wire Wire Line
	6750 1900 6350 1900
Wire Wire Line
	6350 1900 6350 1800
Connection ~ 6350 1800
Wire Wire Line
	6750 2000 6750 1900
Wire Wire Line
	6350 1900 5800 1900
Connection ~ 6350 1900
Wire Wire Line
	6750 1400 6350 1400
Wire Wire Line
	6350 1400 6350 1500
Connection ~ 6350 1500
Wire Wire Line
	8350 2000 8700 2000
Wire Wire Line
	8700 2000 8700 1750
Wire Wire Line
	8700 1750 9000 1750
Wire Wire Line
	8350 1900 8500 1900
Wire Wire Line
	8500 1900 8500 2100
Connection ~ 8500 2100
Wire Wire Line
	8500 2100 8800 2100
Wire Wire Line
	8800 2100 8800 2150
Connection ~ 8800 2100
Wire Wire Line
	8800 2450 8600 2450
Connection ~ 8600 2450
Wire Wire Line
	8600 2450 8600 2500
Text Label 8450 1800 0    50   ~ 0
GAIN0
Text Label 8450 1700 0    50   ~ 0
GAIN1
Wire Wire Line
	8350 1700 8450 1700
Wire Wire Line
	8350 1800 8450 1800
Wire Wire Line
	6050 2000 6550 2000
Wire Wire Line
	6050 2300 6400 2300
Text Label 2150 1850 2    50   ~ 0
GAIN0
Text Label 2150 1950 2    50   ~ 0
GAIN1
Wire Notes Line
	5700 800  5700 2900
Wire Notes Line
	10700 2900 10700 800 
Wire Notes Line
	5700 2900 10700 2900
$Comp
L Device:CP C3
U 1 1 5C39E5D2
P 8550 5450
F 0 "C3" H 8668 5496 50  0000 L CNN
F 1 "100uF" H 8668 5405 50  0000 L CNN
F 2 "Capacitors_THT:CP_Radial_D6.3mm_P2.50mm" H 8588 5300 50  0001 C CNN
F 3 "~" H 8550 5450 50  0001 C CNN
	1    8550 5450
	1    0    0    -1  
$EndComp
Connection ~ 8550 5300
$Comp
L power:GND #PWR0106
U 1 1 5C39E734
P 8550 5600
F 0 "#PWR0106" H 8550 5350 50  0001 C CNN
F 1 "GND" H 8555 5427 50  0000 C CNN
F 2 "" H 8550 5600 50  0001 C CNN
F 3 "" H 8550 5600 50  0001 C CNN
	1    8550 5600
	1    0    0    -1  
$EndComp
$Comp
L teensy:Teensy3.2 U1
U 1 1 5BA2441D
P 3300 2550
F 0 "U1" H 3300 4137 60  0000 C CNN
F 1 "Teensy3.2" H 3300 4031 60  0000 C CNN
F 2 "teensy:Teensy30_31_32_LC" H 3300 1750 60  0001 C CNN
F 3 "" H 3300 1750 60  0000 C CNN
	1    3300 2550
	1    0    0    -1  
$EndComp
Text Notes 6500 3550 0    79   ~ 0
TMC2130 Stepper Motor Driver and input from printer
Wire Notes Line
	5700 800  10700 800 
Wire Wire Line
	2150 2250 2300 2250
Wire Wire Line
	2150 2350 2300 2350
Text Label 4000 5350 2    50   ~ 0
BTN_DOWN
Text Label 4000 5250 2    50   ~ 0
BTN_UP
Text Label 4050 6350 2    50   ~ 0
BTN_STOP
Wire Notes Line
	4950 7400 1600 7400
Wire Notes Line
	4950 4700 4950 7400
Wire Notes Line
	1600 4700 1600 7400
$Comp
L Connector_Generic:Conn_01x03 J2
U 1 1 5C52EC48
P 4350 5350
F 0 "J2" H 4430 5392 50  0000 L CNN
F 1 "JOG_BTNS" H 4430 5301 50  0000 L CNN
F 2 "Socket_Strips:Socket_Strip_Straight_1x03_Pitch2.54mm" H 4350 5350 50  0001 C CNN
F 3 "~" H 4350 5350 50  0001 C CNN
	1    4350 5350
	1    0    0    -1  
$EndComp
$Comp
L Connector_Generic:Conn_01x02 J3
U 1 1 5C52EF12
P 4350 6350
F 0 "J3" H 4430 6342 50  0000 L CNN
F 1 "STOP_BTN" H 4430 6251 50  0000 L CNN
F 2 "Socket_Strips:Socket_Strip_Straight_1x02_Pitch2.54mm" H 4350 6350 50  0001 C CNN
F 3 "~" H 4350 6350 50  0001 C CNN
	1    4350 6350
	1    0    0    -1  
$EndComp
Wire Wire Line
	4050 6350 4150 6350
Wire Wire Line
	4000 5250 4150 5250
Wire Wire Line
	4000 5350 4150 5350
$Comp
L power:GND #PWR01
U 1 1 5C53B287
P 4150 5600
F 0 "#PWR01" H 4150 5350 50  0001 C CNN
F 1 "GND" H 4155 5427 50  0000 C CNN
F 2 "" H 4150 5600 50  0001 C CNN
F 3 "" H 4150 5600 50  0001 C CNN
	1    4150 5600
	1    0    0    -1  
$EndComp
$Comp
L power:GND #PWR02
U 1 1 5C53B2B3
P 4150 6550
F 0 "#PWR02" H 4150 6300 50  0001 C CNN
F 1 "GND" H 4155 6377 50  0000 C CNN
F 2 "" H 4150 6550 50  0001 C CNN
F 3 "" H 4150 6550 50  0001 C CNN
	1    4150 6550
	1    0    0    -1  
$EndComp
Wire Wire Line
	4150 5450 4150 5600
Wire Wire Line
	4150 6550 4150 6450
$Comp
L Connector_Generic:Conn_01x02 J1
U 1 1 5C548DAC
P 1950 6450
F 0 "J1" V 1916 6262 50  0000 R CNN
F 1 "PWR_IN" V 1825 6262 50  0000 R CNN
F 2 "Socket_Strips:Socket_Strip_Straight_1x02_Pitch2.54mm" H 1950 6450 50  0001 C CNN
F 3 "~" H 1950 6450 50  0001 C CNN
	1    1950 6450
	0    -1   -1   0   
$EndComp
$Comp
L Connector_Generic:Conn_01x02 J6
U 1 1 5C5516C1
P 2600 6450
F 0 "J6" V 2566 6262 50  0000 R CNN
F 1 "UART" V 2475 6262 50  0000 R CNN
F 2 "Socket_Strips:Socket_Strip_Straight_1x02_Pitch2.54mm" H 2600 6450 50  0001 C CNN
F 3 "~" H 2600 6450 50  0001 C CNN
	1    2600 6450
	0    -1   -1   0   
$EndComp
$Comp
L Connector_Generic:Conn_01x02 J7
U 1 1 5C5516F7
P 3150 6450
F 0 "J7" V 3116 6262 50  0000 R CNN
F 1 "PRT_SGN" V 3025 6262 50  0000 R CNN
F 2 "Socket_Strips:Socket_Strip_Straight_1x02_Pitch2.54mm" H 3150 6450 50  0001 C CNN
F 3 "~" H 3150 6450 50  0001 C CNN
	1    3150 6450
	0    -1   -1   0   
$EndComp
Wire Wire Line
	1750 6650 1950 6650
Wire Wire Line
	2050 6750 2050 6650
Wire Wire Line
	2600 6700 2600 6650
Wire Wire Line
	2700 6700 2700 6650
Wire Wire Line
	3150 6700 3150 6650
Wire Wire Line
	3250 6700 3250 6650
NoConn ~ 2300 3750
NoConn ~ 4300 2250
Wire Wire Line
	4300 3850 4450 3850
$EndSCHEMATC
